<mxfile host="65bd71144e" scale="1" border="50">
    <diagram id="a93rKn7xQJn75iH71877" name="Page-1">
        <mxGraphModel dx="1028" dy="722" grid="1" gridSize="10" guides="1" tooltips="1" connect="1" arrows="1" fold="1" page="1" pageScale="1" pageWidth="827" pageHeight="1169" background="none" math="0" shadow="0">
            <root>
                <mxCell id="0"/>
                <mxCell id="1" parent="0"/>
                <mxCell id="46" value="Editer des Stats" style="shape=umlFrame;whiteSpace=wrap;html=1;width=120;height=30;boundedLbl=1;verticalAlign=middle;align=left;spacingLeft=5;fontStyle=0;strokeColor=#FF0000;fillColor=#CC0000;" parent="1" vertex="1">
                    <mxGeometry x="180" y="748" width="760" height="392" as="geometry"/>
                </mxCell>
                <mxCell id="8" value="Gestions des opérations" style="shape=umlFrame;whiteSpace=wrap;html=1;width=120;height=30;boundedLbl=1;verticalAlign=middle;align=left;spacingLeft=5;fontStyle=0;strokeColor=#3333FF;fillColor=#3333FF;" parent="1" vertex="1">
                    <mxGeometry x="180" y="20" width="760" height="700" as="geometry"/>
                </mxCell>
                <mxCell id="5" value="Ajouter / modifier supprimer des opérations" style="ellipse;whiteSpace=wrap;html=1;pointerEvents=0;fontFamily=Helvetica;fontSize=12;fontColor=default;fillColor=#3333FF;gradientColor=none;strokeColor=#FFFFFF;" parent="1" vertex="1">
                    <mxGeometry x="194" y="155" width="140" height="70" as="geometry"/>
                </mxCell>
                <mxCell id="18" value="&amp;lt;&amp;lt;include&amp;gt;&amp;gt;" style="html=1;verticalAlign=bottom;labelBackgroundColor=none;endArrow=open;endFill=0;dashed=1;exitX=1;exitY=0.5;exitDx=0;exitDy=0;entryX=0;entryY=0.5;entryDx=0;entryDy=0;" parent="1" source="5" target="26" edge="1">
                    <mxGeometry width="160" relative="1" as="geometry">
                        <mxPoint x="350" y="215" as="sourcePoint"/>
                        <mxPoint x="380" y="240" as="targetPoint"/>
                    </mxGeometry>
                </mxCell>
                <mxCell id="21" value="Lié l'opération à une catégorie" style="ellipse;whiteSpace=wrap;html=1;pointerEvents=0;fontFamily=Helvetica;fontSize=12;fontColor=default;fillColor=#3333FF;gradientColor=none;" parent="1" vertex="1">
                    <mxGeometry x="530" y="240" width="140" height="70" as="geometry"/>
                </mxCell>
                <mxCell id="23" value="&amp;lt;&amp;lt;include&amp;gt;&amp;gt;" style="html=1;verticalAlign=bottom;labelBackgroundColor=none;endArrow=open;endFill=0;dashed=1;entryX=0;entryY=0.5;entryDx=0;entryDy=0;exitX=1;exitY=1;exitDx=0;exitDy=0;" parent="1" source="5" target="21" edge="1">
                    <mxGeometry width="160" relative="1" as="geometry">
                        <mxPoint x="550" y="240" as="sourcePoint"/>
                        <mxPoint x="510" y="225" as="targetPoint"/>
                    </mxGeometry>
                </mxCell>
                <mxCell id="24" value="Rendre une opération immuable" style="ellipse;whiteSpace=wrap;html=1;pointerEvents=0;fontFamily=Helvetica;fontSize=12;fontColor=default;fillColor=#4C4CCF;gradientColor=none;" parent="1" vertex="1">
                    <mxGeometry x="194" y="585" width="140" height="70" as="geometry"/>
                </mxCell>
                <mxCell id="26" value="définir l'état de l'opération (recette ou dépense)" style="ellipse;whiteSpace=wrap;html=1;pointerEvents=0;fontFamily=Helvetica;fontSize=12;fontColor=default;fillColor=#3333FF;gradientColor=none;strokeColor=#FFFFFF;" parent="1" vertex="1">
                    <mxGeometry x="520" y="40" width="140" height="70" as="geometry"/>
                </mxCell>
                <mxCell id="30" value="rendre l'opération altérable&amp;nbsp;" style="ellipse;whiteSpace=wrap;html=1;pointerEvents=0;fontFamily=Helvetica;fontSize=12;fontColor=default;fillColor=#4C4CCF;gradientColor=none;" parent="1" vertex="1">
                    <mxGeometry x="440" y="585" width="140" height="70" as="geometry"/>
                </mxCell>
                <mxCell id="32" value="&lt;font style=&quot;font-size: 12px&quot;&gt;&amp;lt;&amp;lt;extend&amp;gt;&amp;gt;&lt;/font&gt;" style="html=1;verticalAlign=bottom;labelBackgroundColor=none;endArrow=open;endFill=0;dashed=1;fontSize=9;exitX=0;exitY=0.5;exitDx=0;exitDy=0;entryX=1;entryY=0.5;entryDx=0;entryDy=0;" parent="1" source="30" target="24" edge="1">
                    <mxGeometry width="160" relative="1" as="geometry">
                        <mxPoint x="280" y="300" as="sourcePoint"/>
                        <mxPoint x="440" y="300" as="targetPoint"/>
                    </mxGeometry>
                </mxCell>
                <mxCell id="38" value="(option) Lié l'opération à une personne de la famille" style="ellipse;whiteSpace=wrap;html=1;pointerEvents=0;fontFamily=Helvetica;fontSize=12;fontColor=default;fillColor=#663300;gradientColor=none;" parent="1" vertex="1">
                    <mxGeometry x="690" y="450" width="160" height="70" as="geometry"/>
                </mxCell>
                <mxCell id="41" value="&amp;lt;&amp;lt;extend&amp;gt;&amp;gt;" style="html=1;verticalAlign=bottom;labelBackgroundColor=none;endArrow=open;endFill=0;dashed=1;fontSize=12;entryX=1;entryY=1;entryDx=0;entryDy=0;exitX=0;exitY=0.5;exitDx=0;exitDy=0;" parent="1" source="38" target="5" edge="1">
                    <mxGeometry width="160" relative="1" as="geometry">
                        <mxPoint x="557.4999999999968" y="365" as="sourcePoint"/>
                        <mxPoint x="609.9999999999973" y="315" as="targetPoint"/>
                    </mxGeometry>
                </mxCell>
                <mxCell id="42" value="&lt;font style=&quot;font-size: 12px&quot;&gt;&amp;lt;&amp;lt;extend&amp;gt;&amp;gt;&lt;/font&gt;" style="html=1;verticalAlign=bottom;labelBackgroundColor=none;endArrow=open;endFill=0;dashed=1;fontSize=9;exitX=0.5;exitY=0;exitDx=0;exitDy=0;entryX=0.5;entryY=1;entryDx=0;entryDy=0;" parent="1" source="24" target="5" edge="1">
                    <mxGeometry width="160" relative="1" as="geometry">
                        <mxPoint x="344" y="455" as="sourcePoint"/>
                        <mxPoint x="420" y="455" as="targetPoint"/>
                    </mxGeometry>
                </mxCell>
                <mxCell id="45" value="Calculer des stats" style="ellipse;whiteSpace=wrap;html=1;pointerEvents=0;fontFamily=Helvetica;fontSize=12;fontColor=default;fillColor=#FF0000;gradientColor=none;strokeColor=#FFFFFF;" parent="1" vertex="1">
                    <mxGeometry x="194" y="784" width="140" height="70" as="geometry"/>
                </mxCell>
                <mxCell id="47" value="définir la date de l'opération (option : date future ppur budget prévisionnel)" style="ellipse;whiteSpace=wrap;html=1;pointerEvents=0;fontFamily=Helvetica;fontSize=12;fontColor=default;fillColor=#3333FF;gradientColor=none;strokeColor=#FFFFFF;" parent="1" vertex="1">
                    <mxGeometry x="500" y="140" width="180" height="70" as="geometry"/>
                </mxCell>
                <mxCell id="48" value="&amp;lt;&amp;lt;include&amp;gt;&amp;gt;" style="html=1;verticalAlign=bottom;labelBackgroundColor=none;endArrow=open;endFill=0;dashed=1;entryX=0;entryY=0.5;entryDx=0;entryDy=0;exitX=1;exitY=0.5;exitDx=0;exitDy=0;" parent="1" source="5" target="47" edge="1">
                    <mxGeometry width="160" relative="1" as="geometry">
                        <mxPoint x="323.4974746830583" y="224.74873734152925" as="sourcePoint"/>
                        <mxPoint x="540" y="325" as="targetPoint"/>
                    </mxGeometry>
                </mxCell>
                <mxCell id="49" value="(option) Ajouter des justificatifs à l'opération" style="ellipse;whiteSpace=wrap;html=1;pointerEvents=0;fontFamily=Helvetica;fontSize=12;fontColor=default;fillColor=#99004D;gradientColor=none;" parent="1" vertex="1">
                    <mxGeometry x="510" y="490" width="140" height="70" as="geometry"/>
                </mxCell>
                <mxCell id="53" value="&amp;lt;&amp;lt;extend&amp;gt;&amp;gt;" style="html=1;verticalAlign=bottom;labelBackgroundColor=none;endArrow=open;endFill=0;dashed=1;fontSize=12;entryX=1;entryY=1;entryDx=0;entryDy=0;exitX=0;exitY=0;exitDx=0;exitDy=0;" parent="1" source="49" target="5" edge="1">
                    <mxGeometry width="160" relative="1" as="geometry">
                        <mxPoint x="360" y="420" as="sourcePoint"/>
                        <mxPoint x="520" y="420" as="targetPoint"/>
                    </mxGeometry>
                </mxCell>
                <mxCell id="57" value="option : date future pour budget prévisionnel)" style="ellipse;whiteSpace=wrap;html=1;pointerEvents=0;fontFamily=Helvetica;fontSize=12;fontColor=default;fillColor=#3333FF;gradientColor=none;strokeColor=#FFFFFF;" parent="1" vertex="1">
                    <mxGeometry x="740" y="70" width="150" height="70" as="geometry"/>
                </mxCell>
                <mxCell id="58" value="Ajouter une récurrence (jour / mois / année)" style="ellipse;whiteSpace=wrap;html=1;pointerEvents=0;fontFamily=Helvetica;fontSize=12;fontColor=default;fillColor=#3333FF;gradientColor=none;strokeColor=#FFFFFF;" parent="1" vertex="1">
                    <mxGeometry x="740" y="180" width="150" height="70" as="geometry"/>
                </mxCell>
                <mxCell id="59" value="&amp;lt;&amp;lt;extend&amp;gt;&amp;gt;" style="html=1;verticalAlign=bottom;labelBackgroundColor=none;endArrow=open;endFill=0;dashed=1;fontSize=12;entryX=1;entryY=0.5;entryDx=0;entryDy=0;exitX=0;exitY=0.5;exitDx=0;exitDy=0;" parent="1" source="57" target="47" edge="1">
                    <mxGeometry width="160" relative="1" as="geometry">
                        <mxPoint x="670" y="230" as="sourcePoint"/>
                        <mxPoint x="680" y="220" as="targetPoint"/>
                    </mxGeometry>
                </mxCell>
                <mxCell id="60" value="&amp;lt;&amp;lt;extend&amp;gt;&amp;gt;" style="html=1;verticalAlign=bottom;labelBackgroundColor=none;endArrow=open;endFill=0;dashed=1;fontSize=12;entryX=1;entryY=0.5;entryDx=0;entryDy=0;exitX=0;exitY=0.5;exitDx=0;exitDy=0;" parent="1" source="58" target="47" edge="1">
                    <mxGeometry width="160" relative="1" as="geometry">
                        <mxPoint x="370" y="420" as="sourcePoint"/>
                        <mxPoint x="530" y="420" as="targetPoint"/>
                    </mxGeometry>
                </mxCell>
                <mxCell id="61" value="filtre par date" style="ellipse;whiteSpace=wrap;html=1;pointerEvents=0;fontFamily=Helvetica;fontSize=12;fontColor=default;fillColor=#FF0000;gradientColor=none;strokeColor=#FFFFFF;" parent="1" vertex="1">
                    <mxGeometry x="470" y="760" width="140" height="70" as="geometry"/>
                </mxCell>
                <mxCell id="62" value="filtre par catégories" style="ellipse;whiteSpace=wrap;html=1;pointerEvents=0;fontFamily=Helvetica;fontSize=12;fontColor=default;fillColor=#FF0000;gradientColor=none;strokeColor=#FFFFFF;" parent="1" vertex="1">
                    <mxGeometry x="470" y="853" width="140" height="70" as="geometry"/>
                </mxCell>
                <mxCell id="63" value="option : fitre par utilisateur" style="ellipse;whiteSpace=wrap;html=1;pointerEvents=0;fontFamily=Helvetica;fontSize=12;fontColor=default;fillColor=#663300;gradientColor=none;strokeColor=#FFFFFF;" parent="1" vertex="1">
                    <mxGeometry x="450" y="1030" width="140" height="70" as="geometry"/>
                </mxCell>
                <mxCell id="65" value="&amp;lt;&amp;lt;extend&amp;gt;&amp;gt;" style="html=1;verticalAlign=bottom;labelBackgroundColor=none;endArrow=open;endFill=0;dashed=1;fontSize=12;exitX=0;exitY=0.5;exitDx=0;exitDy=0;entryX=1;entryY=0.5;entryDx=0;entryDy=0;" parent="1" source="61" target="45" edge="1">
                    <mxGeometry width="160" relative="1" as="geometry">
                        <mxPoint x="370" y="960" as="sourcePoint"/>
                        <mxPoint x="340" y="820" as="targetPoint"/>
                    </mxGeometry>
                </mxCell>
                <mxCell id="66" value="&amp;lt;&amp;lt;extend&amp;gt;&amp;gt;" style="html=1;verticalAlign=bottom;labelBackgroundColor=none;endArrow=open;endFill=0;dashed=1;fontSize=12;exitX=0;exitY=0.5;exitDx=0;exitDy=0;entryX=1;entryY=0.5;entryDx=0;entryDy=0;" parent="1" source="62" target="45" edge="1">
                    <mxGeometry width="160" relative="1" as="geometry">
                        <mxPoint x="340" y="820" as="sourcePoint"/>
                        <mxPoint x="390" y="809" as="targetPoint"/>
                    </mxGeometry>
                </mxCell>
                <mxCell id="67" value="&amp;lt;&amp;lt;extend&amp;gt;&amp;gt;" style="html=1;verticalAlign=bottom;labelBackgroundColor=none;endArrow=open;endFill=0;dashed=1;fontSize=12;exitX=0;exitY=0.5;exitDx=0;exitDy=0;entryX=0.5;entryY=1;entryDx=0;entryDy=0;" parent="1" source="63" target="45" edge="1">
                    <mxGeometry width="160" relative="1" as="geometry">
                        <mxPoint x="354" y="839" as="sourcePoint"/>
                        <mxPoint x="400" y="819" as="targetPoint"/>
                    </mxGeometry>
                </mxCell>
                <mxCell id="69" value="Visualisation et suivi des opérations parents" style="shape=umlFrame;whiteSpace=wrap;html=1;width=131;height=40;boundedLbl=1;verticalAlign=middle;align=left;spacingLeft=5;fontStyle=0;strokeColor=#3333FF;fillColor=#3333FF;" parent="1" vertex="1">
                    <mxGeometry x="180" y="1270" width="760" height="570" as="geometry"/>
                </mxCell>
                <mxCell id="70" value="Visualiser les opérations des parents" style="ellipse;whiteSpace=wrap;html=1;pointerEvents=0;fontFamily=Helvetica;fontSize=12;fontColor=default;fillColor=#3333FF;gradientColor=none;strokeColor=#FFFFFF;" parent="1" vertex="1">
                    <mxGeometry x="430" y="1300" width="140" height="70" as="geometry"/>
                </mxCell>
                <mxCell id="72" value="(option) Visualiser les opérations par&amp;nbsp;parent" style="ellipse;whiteSpace=wrap;html=1;pointerEvents=0;fontFamily=Helvetica;fontSize=12;fontColor=#ffffff;fillColor=#d80073;strokeColor=#A50040;" parent="1" vertex="1">
                    <mxGeometry x="430" y="1390" width="140" height="70" as="geometry"/>
                </mxCell>
                <mxCell id="73" value="(option) ajouter un solde banquaire initial" style="ellipse;whiteSpace=wrap;html=1;pointerEvents=0;fontFamily=Helvetica;fontSize=12;fontColor=#ffffff;fillColor=#d80073;strokeColor=#A50040;" parent="1" vertex="1">
                    <mxGeometry x="230" y="1750" width="140" height="70" as="geometry"/>
                </mxCell>
                <mxCell id="74" value="(option) calculer son solde banquaire avec les opérations ajoutées" style="ellipse;whiteSpace=wrap;html=1;pointerEvents=0;fontFamily=Helvetica;fontSize=12;fontColor=#ffffff;fillColor=#d80073;strokeColor=#A50040;" parent="1" vertex="1">
                    <mxGeometry x="500" y="1750" width="160" height="70" as="geometry"/>
                </mxCell>
                <mxCell id="75" value="&amp;lt;&amp;lt;include&amp;gt;&amp;gt;" style="html=1;verticalAlign=bottom;labelBackgroundColor=none;endArrow=open;endFill=0;dashed=1;fontSize=12;exitX=1;exitY=0.5;exitDx=0;exitDy=0;entryX=0;entryY=0.5;entryDx=0;entryDy=0;" parent="1" source="73" target="74" edge="1">
                    <mxGeometry width="160" relative="1" as="geometry">
                        <mxPoint x="420" y="1410" as="sourcePoint"/>
                        <mxPoint x="580" y="1410" as="targetPoint"/>
                    </mxGeometry>
                </mxCell>
                <mxCell id="94" style="edgeStyle=none;html=1;exitX=1;exitY=0.3333333333333333;exitDx=0;exitDy=0;exitPerimeter=0;fontSize=12;" parent="1" source="76" target="45" edge="1">
                    <mxGeometry relative="1" as="geometry"/>
                </mxCell>
                <mxCell id="76" value="Parents" style="shape=umlActor;verticalLabelPosition=bottom;verticalAlign=top;html=1;outlineConnect=0;fontSize=9;" parent="1" vertex="1">
                    <mxGeometry x="40" y="800" width="30" height="60" as="geometry"/>
                </mxCell>
                <mxCell id="82" style="edgeStyle=none;html=1;exitX=1;exitY=0.3333333333333333;exitDx=0;exitDy=0;exitPerimeter=0;entryX=0;entryY=0.5;entryDx=0;entryDy=0;fontSize=12;" parent="1" source="77" target="5" edge="1">
                    <mxGeometry relative="1" as="geometry"/>
                </mxCell>
                <mxCell id="77" value="&lt;font color=&quot;#663300&quot;&gt;(option) Enfants&lt;/font&gt;" style="shape=umlActor;verticalLabelPosition=bottom;verticalAlign=top;html=1;outlineConnect=0;fontSize=9;strokeColor=#663300;" parent="1" vertex="1">
                    <mxGeometry x="20" y="280" width="30" height="60" as="geometry"/>
                </mxCell>
                <mxCell id="79" style="edgeStyle=none;html=1;exitX=1;exitY=0.3333333333333333;exitDx=0;exitDy=0;exitPerimeter=0;entryX=0;entryY=0.5;entryDx=0;entryDy=0;fontSize=12;" parent="1" source="78" target="5" edge="1">
                    <mxGeometry relative="1" as="geometry"/>
                </mxCell>
                <mxCell id="78" value="Parents" style="shape=umlActor;verticalLabelPosition=bottom;verticalAlign=top;html=1;outlineConnect=0;fontSize=9;" parent="1" vertex="1">
                    <mxGeometry x="20" y="170" width="30" height="60" as="geometry"/>
                </mxCell>
                <mxCell id="150" style="edgeStyle=none;html=1;exitX=0;exitY=0.5;exitDx=0;exitDy=0;exitPerimeter=0;fontColor=#663300;endArrow=none;endFill=0;strokeColor=#663300;fillColor=#663300;" edge="1" parent="1" source="88">
                    <mxGeometry relative="1" as="geometry">
                        <mxPoint x="610" y="370" as="targetPoint"/>
                    </mxGeometry>
                </mxCell>
                <mxCell id="88" value="L'enfant devra obligatoirement entrer son nom dans l'opération" style="shape=note2;boundedLbl=1;whiteSpace=wrap;html=1;size=25;verticalAlign=top;align=left;spacingLeft=5;fontSize=12;strokeColor=#3333FF;fillColor=#663300;" parent="1" vertex="1">
                    <mxGeometry x="710" y="320" width="160" height="100" as="geometry"/>
                </mxCell>
                <mxCell id="93" value="L'enfant n'aura accès qu'a ses propres opérations" style="shape=note2;boundedLbl=1;whiteSpace=wrap;html=1;size=25;verticalAlign=top;align=left;spacingLeft=5;fontSize=12;strokeColor=#3333FF;fillColor=#663300;" parent="1" vertex="1">
                    <mxGeometry y="380" width="160" height="80" as="geometry"/>
                </mxCell>
                <mxCell id="98" style="edgeStyle=none;html=1;exitX=1;exitY=0.3333333333333333;exitDx=0;exitDy=0;exitPerimeter=0;entryX=0;entryY=1;entryDx=0;entryDy=0;fontSize=12;" parent="1" source="96" target="45" edge="1">
                    <mxGeometry relative="1" as="geometry"/>
                </mxCell>
                <mxCell id="96" value="&lt;font color=&quot;#663300&quot;&gt;(option) Enfants&lt;/font&gt;" style="shape=umlActor;verticalLabelPosition=bottom;verticalAlign=top;html=1;outlineConnect=0;fontSize=9;strokeColor=#663300;" parent="1" vertex="1">
                    <mxGeometry x="40" y="923" width="30" height="60" as="geometry"/>
                </mxCell>
                <mxCell id="155" style="edgeStyle=none;html=1;exitX=0;exitY=0.5;exitDx=0;exitDy=0;exitPerimeter=0;fontColor=#663300;endArrow=none;endFill=0;strokeColor=#663300;fillColor=#663300;" edge="1" parent="1" source="97">
                    <mxGeometry relative="1" as="geometry">
                        <mxPoint x="460" y="974.9230769230769" as="targetPoint"/>
                    </mxGeometry>
                </mxCell>
                <mxCell id="97" value="L'enfant aura obligatoirement le filtre avec son utilisateur activé." style="shape=note2;boundedLbl=1;whiteSpace=wrap;html=1;size=25;verticalAlign=top;align=left;spacingLeft=5;fontSize=12;strokeColor=#3333FF;fillColor=#663300;" parent="1" vertex="1">
                    <mxGeometry x="620" y="930" width="160" height="90" as="geometry"/>
                </mxCell>
                <mxCell id="101" style="edgeStyle=none;html=1;exitX=1;exitY=0.3333333333333333;exitDx=0;exitDy=0;exitPerimeter=0;entryX=0;entryY=0.5;entryDx=0;entryDy=0;fontSize=12;" parent="1" source="99" target="119" edge="1">
                    <mxGeometry relative="1" as="geometry"/>
                </mxCell>
                <mxCell id="104" style="edgeStyle=none;html=1;exitX=1;exitY=0.3333333333333333;exitDx=0;exitDy=0;exitPerimeter=0;entryX=0;entryY=0.5;entryDx=0;entryDy=0;fontSize=12;" parent="1" source="99" target="73" edge="1">
                    <mxGeometry relative="1" as="geometry"/>
                </mxCell>
                <mxCell id="148" style="edgeStyle=none;html=1;exitX=1;exitY=0.3333333333333333;exitDx=0;exitDy=0;exitPerimeter=0;entryX=0;entryY=0.5;entryDx=0;entryDy=0;endArrow=classic;endFill=1;" edge="1" parent="1" source="99" target="130">
                    <mxGeometry relative="1" as="geometry"/>
                </mxCell>
                <mxCell id="99" value="Parents" style="shape=umlActor;verticalLabelPosition=bottom;verticalAlign=top;html=1;outlineConnect=0;fontSize=9;" parent="1" vertex="1">
                    <mxGeometry x="40" y="1420" width="30" height="60" as="geometry"/>
                </mxCell>
                <mxCell id="142" style="edgeStyle=none;html=1;exitX=1;exitY=0.3333333333333333;exitDx=0;exitDy=0;exitPerimeter=0;entryX=0;entryY=0.5;entryDx=0;entryDy=0;endArrow=classic;endFill=1;" edge="1" parent="1" source="100" target="130">
                    <mxGeometry relative="1" as="geometry">
                        <mxPoint x="161" y="2130" as="targetPoint"/>
                    </mxGeometry>
                </mxCell>
                <mxCell id="143" style="edgeStyle=none;html=1;exitX=1;exitY=0.3333333333333333;exitDx=0;exitDy=0;exitPerimeter=0;entryX=0;entryY=0.5;entryDx=0;entryDy=0;endArrow=classic;endFill=1;" edge="1" parent="1" source="100" target="73">
                    <mxGeometry relative="1" as="geometry">
                        <mxPoint x="136.96000000000004" y="2037.06" as="targetPoint"/>
                    </mxGeometry>
                </mxCell>
                <mxCell id="100" value="&lt;font color=&quot;#663300&quot;&gt;(option) Enfants&lt;/font&gt;" style="shape=umlActor;verticalLabelPosition=bottom;verticalAlign=top;html=1;outlineConnect=0;fontSize=9;strokeColor=#663300;" parent="1" vertex="1">
                    <mxGeometry x="50" y="1730" width="30" height="60" as="geometry"/>
                </mxCell>
                <mxCell id="109" value="Filtrer par dates" style="ellipse;whiteSpace=wrap;html=1;pointerEvents=0;fontFamily=Helvetica;fontSize=12;fontColor=default;fillColor=#3333FF;gradientColor=none;strokeColor=#FFFFFF;" parent="1" vertex="1">
                    <mxGeometry x="660" y="1470" width="140" height="70" as="geometry"/>
                </mxCell>
                <mxCell id="110" value="Filtrer par catégories" style="ellipse;whiteSpace=wrap;html=1;pointerEvents=0;fontFamily=Helvetica;fontSize=12;fontColor=default;fillColor=#3333FF;gradientColor=none;strokeColor=#FFFFFF;" parent="1" vertex="1">
                    <mxGeometry x="660" y="1650" width="140" height="70" as="geometry"/>
                </mxCell>
                <mxCell id="112" value="&amp;lt;&amp;lt;extend&amp;gt;&amp;gt;" style="html=1;verticalAlign=bottom;labelBackgroundColor=none;endArrow=open;endFill=0;dashed=1;fontSize=12;exitX=0;exitY=0.5;exitDx=0;exitDy=0;entryX=1;entryY=0.5;entryDx=0;entryDy=0;" parent="1" source="110" target="119" edge="1">
                    <mxGeometry width="160" relative="1" as="geometry">
                        <mxPoint x="410" y="1470" as="sourcePoint"/>
                        <mxPoint x="570" y="1470" as="targetPoint"/>
                    </mxGeometry>
                </mxCell>
                <mxCell id="113" value="&amp;lt;&amp;lt;extend&amp;gt;&amp;gt;" style="html=1;verticalAlign=bottom;labelBackgroundColor=none;endArrow=open;endFill=0;dashed=1;fontSize=12;exitX=0;exitY=0.5;exitDx=0;exitDy=0;entryX=1;entryY=0.5;entryDx=0;entryDy=0;" parent="1" source="109" target="119" edge="1">
                    <mxGeometry width="160" relative="1" as="geometry">
                        <mxPoint x="349.99999999999864" y="1545" as="sourcePoint"/>
                        <mxPoint x="430.5025253169374" y="1499.7487373415315" as="targetPoint"/>
                    </mxGeometry>
                </mxCell>
                <mxCell id="119" value="Visualiser les opérations" style="ellipse;whiteSpace=wrap;html=1;pointerEvents=0;fontFamily=Helvetica;fontSize=12;fontColor=default;fillColor=#3333FF;gradientColor=none;strokeColor=#FFFFFF;" vertex="1" parent="1">
                    <mxGeometry x="230" y="1460" width="140" height="80" as="geometry"/>
                </mxCell>
                <mxCell id="130" value="(options) Visualiser les opérations des enfants" style="ellipse;whiteSpace=wrap;html=1;pointerEvents=0;fontFamily=Helvetica;fontSize=12;fontColor=default;fillColor=#663300;gradientColor=none;strokeColor=#FFFFFF;" vertex="1" parent="1">
                    <mxGeometry x="230" y="1620" width="140" height="70" as="geometry"/>
                </mxCell>
                <mxCell id="145" value="&amp;lt;&amp;lt;extend&amp;gt;&amp;gt;" style="html=1;verticalAlign=bottom;labelBackgroundColor=none;endArrow=open;endFill=0;dashed=1;fontSize=12;exitX=0;exitY=0.5;exitDx=0;exitDy=0;entryX=1;entryY=0;entryDx=0;entryDy=0;" edge="1" parent="1" source="72" target="119">
                    <mxGeometry width="160" relative="1" as="geometry">
                        <mxPoint x="730" y="1620" as="sourcePoint"/>
                        <mxPoint x="350" y="1540" as="targetPoint"/>
                    </mxGeometry>
                </mxCell>
                <mxCell id="149" value="&lt;font color=&quot;#663300&quot;&gt;&amp;lt;&amp;lt;include&amp;gt;&amp;gt;&lt;/font&gt;" style="html=1;verticalAlign=bottom;labelBackgroundColor=none;endArrow=open;endFill=0;dashed=1;entryX=0.5;entryY=0;entryDx=0;entryDy=0;exitX=1;exitY=1;exitDx=0;exitDy=0;fillColor=#663300;strokeColor=#663300;" edge="1" parent="1" source="5" target="38">
                    <mxGeometry width="160" relative="1" as="geometry">
                        <mxPoint x="323.4974746830584" y="224.74873734152914" as="sourcePoint"/>
                        <mxPoint x="540" y="285" as="targetPoint"/>
                    </mxGeometry>
                </mxCell>
                <mxCell id="152" value="&amp;lt;&amp;lt;include&amp;gt;&amp;gt;" style="html=1;verticalAlign=bottom;labelBackgroundColor=none;endArrow=open;endFill=0;dashed=1;fontSize=12;exitX=0.5;exitY=0;exitDx=0;exitDy=0;entryX=0.5;entryY=1;entryDx=0;entryDy=0;" edge="1" parent="1" source="130" target="119">
                    <mxGeometry width="160" relative="1" as="geometry">
                        <mxPoint x="380" y="1610" as="sourcePoint"/>
                        <mxPoint x="510" y="1610" as="targetPoint"/>
                    </mxGeometry>
                </mxCell>
                <mxCell id="153" value="&amp;lt;&amp;lt;include&amp;gt;&amp;gt;" style="html=1;verticalAlign=bottom;labelBackgroundColor=none;endArrow=open;endFill=0;dashed=1;fontSize=12;exitX=0;exitY=0.5;exitDx=0;exitDy=0;entryX=0.5;entryY=0;entryDx=0;entryDy=0;" edge="1" parent="1" source="70" target="119">
                    <mxGeometry width="160" relative="1" as="geometry">
                        <mxPoint x="310" y="1630" as="sourcePoint"/>
                        <mxPoint x="310" y="1550" as="targetPoint"/>
                    </mxGeometry>
                </mxCell>
                <mxCell id="154" value="&lt;font color=&quot;#663300&quot;&gt;&amp;lt;&amp;lt;include&amp;gt;&amp;gt;&lt;/font&gt;" style="html=1;verticalAlign=bottom;labelBackgroundColor=none;endArrow=open;endFill=0;dashed=1;fontSize=12;exitX=1;exitY=1;exitDx=0;exitDy=0;entryX=0.5;entryY=0;entryDx=0;entryDy=0;strokeColor=#663300;" edge="1" parent="1" source="45" target="63">
                    <mxGeometry width="160" relative="1" as="geometry">
                        <mxPoint x="440" y="1345" as="sourcePoint"/>
                        <mxPoint x="310" y="1470" as="targetPoint"/>
                    </mxGeometry>
                </mxCell>
            </root>
        </mxGraphModel>
    </diagram>
</mxfile>